Exploring the BRFSS data
…
## 'data.frame':    473367 obs. of  1 variable:
##  $ veteran3: Factor w/ 2 levels "Yes","No": 2 2 2 2 2 2 2 2 2 2 ...

As we see it is factor of two levels (yes or no)

Therefore we can apply a similar treatment as we did with the color before. But also means that we can get some frequencies of the data.

brfss2013%>%
  group_by(veteran3,educa)%>%
  summarise(count= n())

## `summarise()` regrouping output by 'veteran3' (override with `.groups` argument)

## # A tibble: 21 x 3
## # Groups:   veteran3 [3]
##    veteran3 educa                                                        count
##    <fct>    <fct>                                                        <int>
##  1 Yes      Never attended school or only kindergarten                      21
##  2 Yes      Grades 1 through 8 (Elementary)                                816
##  3 Yes      Grades 9 though 11 (Some high school)                         1896
##  4 Yes      Grade 12 or GED (High school graduate)                       16634
##  5 Yes      College 1 year to 3 years (Some college or technical school) 18183
##  6 Yes      College 4 years or more (College graduate)                   21333
##  7 Yes      <NA>                                                           151
##  8 No       Never attended school or only kindergarten                     550
##  9 No       Grades 1 through 8 (Elementary)                              11076
## 10 No       Grades 9 though 11 (Some high school)                        23600
## # ... with 11 more rows
…
